Exploración, modelos y análisis - Proyecto 1
…
## [1] 5172

#facutas_totales 
facturas_totales = n_distinct(df$InvoiceNo)

2. ¿Cuánto ha sido el monto total obtenido por la
empresa?

sum(df$monto)

## [1] 9747748

filter(df, monto < 0) 

## # A tibble: 9,290 × 16
##    InvoiceNo StockCode Description        Quantity InvoiceDate         UnitPrice
##    <chr>     <chr>     <chr>                 <dbl> <dttm>                  <dbl>
##  1 C536379   D         Discount                 -1 2010-12-01 09:41:00     27.5 
##  2 C536383   35004C    SET OF 3 COLOURED…       -1 2010-12-01 09:49:00      4.65
##  3 C536391   22556     PLASTERS IN TIN C…      -12 2010-12-01 10:24:00      1.65
##  4 C536391   21984     PACK OF 12 PINK P…      -24 2010-12-01 10:24:00      0.29
##  5 C536391   21983     PACK OF 12 BLUE P…      -24 2010-12-01 10:24:00      0.29
##  6 C536391   21980     PACK OF 12 RED RE…      -24 2010-12-01 10:24:00      0.29
##  7 C536391   21484     CHICK GREY HOT WA…      -12 2010-12-01 10:24:00      3.45
##  8 C536391   22557     PLASTERS IN TIN V…      -12 2010-12-01 10:24:00      1.65
##  9 C536391   22553     PLASTERS IN TIN S…      -24 2010-12-01 10:24:00      1.65
## 10 C536506   22960     JAM MAKING SET WI…       -6 2010-12-01 12:38:00      4.25
## # ℹ 9,280 more rows
## # ℹ 10 more variables: CustomerID <dbl>, Country <chr>, monto <dbl>,
## #   region <chr>, year <dbl>, month <dbl>, day <int>, hour <int>, minute <int>,
## #   dia_semana <ord>
…
personas_devolucion <- agrupar_facturas %>%
  group_by(CustomerID) %>%
  summarise(
    facturas_con_devoluciones = n()
  )

personas_devolucion2 <- agrupar_facturas2 %>%
  group_by(CustomerID) %>%
  summarise(
    facturas_con_devoluciones = n()
  )

arrange(personas_devolucion, desc(facturas_con_devoluciones))

## # A tibble: 1,590 × 2
##    CustomerID facturas_con_devoluciones
##         <dbl>                     <int>
##  1         NA                      1518
##  2      14911                        47
##  3      17841                        45
##  4      14606                        35
##  5      14527                        31
##  6      15311                        27
##  7      16422                        24
##  8      13089                        21
##  9      12471                        19
## 10      13408                        19
## # ℹ 1,580 more rows
…
5. ¿Cuál es el producto que más se devuelve?

devolucion_productos = devoluciones %>%
                          group_by(StockCode) %>%
                          summarise(
                            conteo = n()
                          )

arrange(devolucion_productos, desc(conteo))

## # A tibble: 2,559 × 2
##    StockCode conteo
##    <chr>      <int>
##  1 M            244
##  2 22423        184
##  3 POST         126
##  4 22960         87
##  5 D             77
##  6 22720         76
##  7 21232         61
##  8 S             61
##  9 22699         54
## 10 22197         50
## # ℹ 2,549 more rows

6. ¿Cuántos clientes han recomprado?

clientes_recompradores <- df2 %>%
  filter(Quantity > 0) %>%  
  group_by(CustomerID) %>%
  summarise(facturas = n_distinct(InvoiceNo)) %>%
  filter(facturas > 1)

arrange(clientes_recompradores, desc(facturas))

## # A tibble: 2,845 × 2
##    CustomerID facturas
##         <dbl>    <int>
##  1      12748      210
##  2      14911      201
##  3      17841      124
##  4      13089       97
##  5      14606       93
##  6      15311       91
##  7      12971       86
##  8      14646       74
##  9      16029       63
## 10      13408       62
## # ℹ 2,835 more rows
…
# Calculate the total value of purchases per customer (excluding returns)
customer_positive_spending <- df %>%
  # Excluyendo los que no tienen CustomerID
  filter(!is.na(CustomerID)) %>%
  mutate(LineTotal = Quantity * UnitPrice) %>%
  filter(LineTotal > 0) %>%
  #AGRUPAR POR CUSTOMER
  group_by(CustomerID) %>%
  summarise(TotalPositiveSpending = sum(LineTotal)) %>%

  ungroup()

print(customer_positive_spending)

## # A tibble: 4,338 × 2
##    CustomerID TotalPositiveSpending
##         <dbl>                 <dbl>
##  1      12346                77184.
##  2      12347                 4310 
##  3      12348                 1797.
##  4      12349                 1758.
##  5      12350                  334.
##  6      12352                 2506.
##  7      12353                   89 
##  8      12354                 1079.
##  9      12355                  459.
## 10      12356                 2811.
## # ℹ 4,328 more rows
…
